source/system_control/system_components/uart/simulation/tb_uart.vcd
$date
  Sun May 23 08:54:39 2021
$end
$version
  GHDL v0
$end
$timescale
  1 fs
$end
$scope module standard $end
$upscope $end
$scope module std_logic_1164 $end
$upscope $end
$scope module numeric_std $end
$upscope $end
$scope module textio $end
$upscope $end
$scope module std_logic_textio $end
$upscope $end
$scope module math_real $end
$upscope $end
$scope module uart_pkg $end
$upscope $end
$scope module std_logic_arith $end
$upscope $end
$scope module std_logic_unsigned $end
$upscope $end
$scope module tb_uart $end
$var reg 1 ! rstn $end
$var reg 1 " simulation_running $end
$var reg 1 # simulator_clock $end
$var reg 1 $ clocked_reset $end
$comment uart_clocks is not handled $end
$comment uart_fpga_in is not handled $end
$comment uart_fpga_out is not handled $end
$comment uart_data_in is not handled $end
$comment uart_data_out is not handled $end
$var integer 32 % simulation_counter $end
$var reg 1 & uart_tx $end
$var integer 32 ' data_from_uart $end
$scope module u_uart $end
$comment uart_clocks is not handled $end
$comment uart_fpga_in is not handled $end
$comment uart_fpga_out is not handled $end
$comment uart_data_in is not handled $end
$comment uart_data_out is not handled $end
$var reg 16 ( r_rx_data_out[15:0] $end
$var reg 16 ) r15_uart_data_in[15:0] $end
$var reg 16 * route_uart_tx_data[15:0] $end
$var reg 1 + r_uart_start_event $end
$var reg 1 , route_uart_tx_active $end
$var reg 1 - route_uart_tx_done $end
$var reg 1 . r_rx_ready_event $end
$var reg 1 / route_uart_tx_start $end
$comment r_pres_state is not handled $end
$comment r_next_state is not handled $end
$scope module uart1 $end
$var reg 1 0 uart_clk $end
$var reg 1 1 i_tx_start $end
$var reg 16 2 i_tx_data_in[15:0] $end
$var reg 1 3 so_uart_tx_active $end
$var reg 1 4 uart_tx_done $end
$var reg 1 5 uart_tx_serial $end
$var reg 1 6 uart_rx_serial $end
$var reg 1 7 rx_ready_event $end
$var reg 16 8 o_rx_data_out[15:0] $end
$var reg 8 9 route_uart_rx_data[7:0] $end
$var reg 1 : route_uart_tx_done $end
$var reg 1 ; i $end
$var reg 1 < j $end
$var reg 16 = testidata[15:0] $end
$var reg 8 > route_uart_tx_data[7:0] $end
$var reg 1 ? route_uart_tx_active $end
$var reg 1 @ route_tx_in_progress $end
$var reg 1 A tx_start $end
$var reg 1 B route_rx_ready_event $end
$var reg 1 C route_receive_ready_event $end
$var reg 16 D route_rx_data_out[15:0] $end
$comment present_state is not handled $end
$comment next_state is not handled $end
$comment rx_pres_state is not handled $end
$comment rx_next_state is not handled $end
$scope module uarttx $end
$var reg 1 E i_clk $end
$var reg 1 F i_tx_dv $end
$var reg 8 G i_tx_byte[7:0] $end
$var reg 1 H o_tx_active $end
$var reg 1 I o_tx_serial $end
$var reg 1 J o_tx_done $end
$comment r_sm_main is not handled $end
$var integer 32 K r_clk_count $end
$var integer 32 L r_bit_index $end
$var reg 8 M r_tx_data[7:0] $end
$var reg 1 N r_tx_done $end
$var reg 1 O route_tx_active $end
$upscope $end
$scope module uartrx $end
$var reg 1 P i_clk $end
$var reg 1 Q i_rx_serial $end
$var reg 1 R o_rx_ready_event $end
$var reg 8 S o_rx_byte[7:0] $end
$comment r_sm_main is not handled $end
$var reg 1 T r_rx_data_r $end
$var reg 1 U r_rx_data $end
$var integer 32 V r_clk_count $end
$var integer 32 W r_bit_index $end
$var reg 8 X r_rx_byte[7:0] $end
$var reg 1 Y r_rx_busy $end
$upscope $end
$upscope $end
$upscope $end
$upscope $end
$enddefinitions $end
#0
0!
1"
0#
0$
b11 %
U&
b0 '
b0000011000000110 (
bUUUUUUUUUUUUUUUU )
bUUUUUUUUUUUUUUUU *
U+
U,
U-
U.
U/
00
U1
bUUUUUUUUUUUUUUUU 2
U3
U4
U5
U6
U7
b0000011000000110 8
b00000000 9
0:
0;
0<
b0000011000000110 =
bUUUUUUUU >
U?
U@
UA
0B
UC
b0000011000000110 D
0E
UF
bUUUUUUUU G
UH
UI
0J
b0 K
b0 L
b00000000 M
0N
UO
0P
UQ
0R
b00000000 S
0T
0U
b0 V
b0 W
b00000000 X
0Y
#500000
#1000000
1!
1#
1$
b10 %
1&
b1010110011011100 )
b1010110011011100 *
0,
0.
0/
10
01
b1010110011011100 2
03
15
16
07
0?
0@
0A
0C
1E
0F
0H
1I
0O
1P
1Q
UT
#1500000
0#
00
0E
0P
#2000000
1#
b1 %
1/
10
11
1E
1P
1T
UU
b1 V
#2500000
0#
00
0E
0P
#3000000
1#
b0 %
1,
10
13
1@
1E
1P
1U
b10 V
#3500000
0#
00
0E
0P
#4000000
1#
b1010001010 %
0/
10
01
1;
b10101100 >
1A
1E
1F
b10101100 G
1P
b11 V
#4500000
0#
00
0E
0P
#5000000
1#
b1010001001 %
10
1E
b10101100 M
1P
b100 V
#5500000
0#
00
0E
0P
#6000000
1#
b1010001000 %
0&
10
05
06
1?
1E
1H
0I
b1 K
1O
1P
0Q
b101 V
#6500000
0#
00
0E
0P
#7000000
1#
b1010000111 %
10
1E
b10 K
1P
0T
b110 V
#7500000
0#
00
0E
0P
#8000000
1#
b1010000110 %
10
1E
b11 K
1P
0U
b111 V
#8500000
0#
00
0E
0P
#9000000
1#
b1010000101 %
10
1E
b100 K
1P
b1000 V
#9500000
0#
00
0E
0P
#10000000
1#
b1010000100 %
10
1E
b101 K
1P
b1001 V
#10500000
0#
00
0E
0P
#11000000
1#
b1010000011 %
10
1E
b110 K
1P
b1010 V
#11500000
0#
00
0E
0P
#12000000
1#
b1010000010 %
10
1E
b111 K
1P
b1011 V
#12500000
0#
00
0E
0P
#13000000
1#
b1010000001 %
10
1E
b1000 K
1P
b0 V
#13500000
0#
00
0E
0P
#14000000
1#
b1010000000 %
10
1E
b1001 K
1P
b1 V
#14500000
0#
00
0E
0P
#15000000
1#
b1001111111 %
10
1E
b1010 K
1P
b10 V
#15500000
0#
00
0E
0P
#16000000
1#
b1001111110 %
10
1E
b1011 K
1P
b11 V
#16500000
0#
00
0E
0P
#17000000
1#
b1001111101 %
10
1E
b1100 K
1P
b100 V
#17500000
0#
00
0E
0P
#18000000
1#
b1001111100 %
10
1E
b1101 K
1P
b101 V
#18500000
0#
00
0E
0P
#19000000
1#
b1001111011 %
10
1E
b1110 K
1P
b110 V
#19500000
0#
00
0E
0P
#20000000
1#
b1001111010 %
10
1E
b1111 K
1P
b111 V
#20500000
0#
00
0E
0P
#21000000
1#
b1001111001 %
10
1E
b10000 K
1P
b1000 V
#21500000
0#
00
0E
0P
#22000000
1#
b1001111000 %
10
1E
b10001 K
1P
b1001 V
#22500000
0#
00
0E
0P
#23000000
1#
b1001110111 %
10
1E
b10010 K
1P
b1010 V
#23500000
0#
00
0E
0P
#24000000
1#
b1001110110 %
10
1E
b10011 K
1P
b1011 V
#24500000
0#
00
0E
0P
#25000000
1#
b1001110101 %
10
1E
b10100 K
1P
b1100 V
#25500000
0#
00
0E
0P
#26000000
1#
b1001110100 %
10
1E
b10101 K
1P
b1101 V
#26500000
0#
00
0E
0P
#27000000
1#
b1001110011 %
10
1E
b10110 K
1P
b1110 V
#27500000
0#
00
0E
0P
#28000000
1#
b1001110010 %
10
1E
b10111 K
1P
b1111 V
#28500000
0#
00
0E
0P
#29000000
1#
b1001110001 %
10
1E
b0 K
1P
b10000 V
#29500000
0#
00
0E
0P
#30000000
1#
b1001110000 %
10
1E
b1 K
1P
b10001 V
#30500000
0#
00
0E
0P
#31000000
1#
b1001101111 %
10
1E
b10 K
1P
b10010 V
#31500000
0#
00
0E
0P
#32000000
1#
b1001101110 %
10
1E
b11 K
1P
b10011 V
#32500000
0#
00
0E
0P
#33000000
1#
b1001101101 %
10
1E
b100 K
1P
b10100 V
#33500000
0#
00
0E
0P
#34000000
1#
b1001101100 %
10
1E
b101 K
1P
b10101 V
#34500000
0#
00
0E
0P
#35000000
1#
b1001101011 %
10
1E
b110 K
1P
b10110 V
#35500000
0#
00
0E
0P
#36000000
1#
b1001101010 %
10
1E
b111 K
1P
b10111 V
#36500000
0#
00
0E
0P
#37000000
1#
b1001101001 %
10
1E
b1000 K
1P
b0 V
b1 W
#37500000
0#
00
0E
0P
#38000000
1#
b1001101000 %
10
1E
b1001 K
1P
b1 V
#38500000
0#
00
0E
0P
#39000000
1#
b1001100111 %
10
1E
b1010 K
1P
b10 V
#39500000
0#
00
0E
0P
#40000000
1#
b1001100110 %
10
1E
b1011 K
1P
b11 V
#40500000
0#
00
0E
0P
#41000000
1#
b1001100101 %
10
1E
b1100 K
1P
b100 V
#41500000
0#
00
0E
0P
#42000000
1#
b1001100100 %
10
1E
b1101 K
1P
b101 V
#42500000
0#
00
0E
0P
#43000000
1#
b1001100011 %
10
1E
b1110 K
1P
b110 V
#43500000
0#
00
0E
0P
#44000000
1#
b1001100010 %
10
1E
b1111 K
1P
b111 V
#44500000
0#
00
0E
0P
#45000000
1#
b1001100001 %
10
1E
b10000 K
1P
b1000 V
#45500000
0#
00
0E
0P
#46000000
1#
b1001100000 %
10
1E
b10001 K
1P
b1001 V
#46500000
0#
00
0E
0P
#47000000
1#
b1001011111 %
10
1E
b10010 K
1P
b1010 V
#47500000
0#
00
0E
0P
#48000000
1#
b1001011110 %
10
1E
b10011 K
1P
b1011 V
#48500000
0#
00
0E
0P
#49000000
1#
b1001011101 %
10
1E
b10100 K
1P
b1100 V
#49500000
0#
00
0E
0P
#50000000
1#
b1001011100 %
10
1E
b10101 K
1P
b1101 V
#50500000
0#
00
0E
0P
#51000000
1#
b1001011011 %
10
1E
b10110 K
1P
b1110 V
#51500000
0#
00
0E
0P
#52000000
1#
b1001011010 %
10
1E
b10111 K
1P
b1111 V
#52500000
0#
00
0E
0P
#53000000
1#
b1001011001 %
10
1E
b0 K
b1 L
1P
b10000 V
#53500000
0#
00
0E
0P
#54000000
1#
b1001011000 %
10
1E
b1 K
1P
b10001 V
#54500000
0#
00
0E
0P
#55000000
1#
b1001010111 %
10
1E
b10 K
1P
b10010 V
#55500000
0#
00
0E
0P
#56000000
1#
b1001010110 %
10
1E
b11 K
1P
b10011 V
#56500000
0#
00
0E
0P
#57000000
1#
b1001010101 %
10
1E
b100 K
1P
b10100 V
#57500000
0#
00
0E
0P
#58000000
1#
b1001010100 %
10
1E
b101 K
1P
b10101 V
#58500000
0#
00
0E
0P
#59000000
1#
b1001010011 %
10
1E
b110 K
1P
b10110 V
#59500000
0#
00
0E
0P
#60000000
1#
b1001010010 %
10
1E
b111 K
1P
b10111 V
#60500000
0#
00
0E
0P
#61000000
1#
b1001010001 %
10
1E
b1000 K
1P
b0 V
b10 W
#61500000
0#
00
0E
0P
#62000000
1#
b1001010000 %
10
1E
b1001 K
1P
b1 V
#62500000
0#
00
0E
0P
#63000000
1#
b1001001111 %
10
1E
b1010 K
1P
b10 V
#63500000
0#
00
0E
0P
#64000000
1#
b1001001110 %
10
1E
b1011 K
1P
b11 V
#64500000
0#
00
0E
0P
#65000000
1#
b1001001101 %
10
1E
b1100 K
1P
b100 V
#65500000
0#
00
0E
0P
#66000000
1#
b1001001100 %
10
1E
b1101 K
1P
b101 V
#66500000
0#
00
0E
0P
#67000000
1#
b1001001011 %
10
1E
b1110 K
1P
b110 V
#67500000
0#
00
0E
0P
#68000000
1#
b1001001010 %
10
1E
b1111 K
1P
b111 V
#68500000
0#
00
0E
0P
#69000000
1#
b1001001001 %
10
1E
b10000 K
1P
b1000 V
#69500000
0#
00
0E
0P
#70000000
1#
b1001001000 %
10
1E
b10001 K
1P
b1001 V
#70500000
0#
00
0E
0P
#71000000
1#
b1001000111 %
10
1E
b10010 K
1P
b1010 V
#71500000
0#
00
0E
0P
#72000000
1#
b1001000110 %
10
1E
b10011 K
1P
b1011 V
#72500000
0#
00
0E
0P
#73000000
1#
b1001000101 %
10
1E
b10100 K
1P
b1100 V
#73500000
0#
00
0E
0P
#74000000
1#
b1001000100 %
10
1E
b10101 K
1P
b1101 V
#74500000
0#
00
0E
0P
#75000000
1#
b1001000011 %
10
1E
b10110 K
1P
b1110 V
#75500000
0#
00
0E
0P
#76000000
1#
b1001000010 %
10
1E
b10111 K
1P
b1111 V
#76500000
0#
00
0E
0P
#77000000
1#
b1001000001 %
10
1E
b0 K
b10 L
1P
b10000 V
#77500000
0#
00
0E
0P
#78000000
1#
b1001000000 %
1&
10
15
16
1E
1I
b1 K
1P
1Q
b10001 V
#78500000
0#
00
0E
0P
#79000000
1#
b1000111111 %
10
1E
b10 K
1P
1T
b10010 V
#79500000
0#
00
0E
0P
#80000000
1#
b1000111110 %
10
1E
b11 K
1P
1U
b10011 V
#80500000
0#
00
0E
0P
#81000000
1#
b1000111101 %
10
1E
b100 K
1P
b10100 V
#81500000
0#
00
0E
0P
#82000000
1#
b1000111100 %
10
1E
b101 K
1P
b10101 V
#82500000
0#
00
0E
0P
#83000000
1#
b1000111011 %
10
1E
b110 K
1P
b10110 V
#83500000
0#
00
0E
0P
#84000000
1#
b1000111010 %
10
1E
b111 K
1P
b10111 V
#84500000
0#
00
0E
0P
#85000000
1#
b1000111001 %
10
b10000000 9
1E
b1000 K
1P
b10000000 S
b0 V
b11 W
b10000000 X
#85500000
0#
00
0E
0P
#86000000
1#
b1000111000 %
10
1E
b1001 K
1P
b1 V
#86500000
0#
00
0E
0P
#87000000
1#
b1000110111 %
10
1E
b1010 K
1P
b10 V
#87500000
0#
00
0E
0P
#88000000
1#
b1000110110 %
10
1E
b1011 K
1P
b11 V
#88500000
0#
00
0E
0P
#89000000
1#
b1000110101 %
10
1E
b1100 K
1P
b100 V
#89500000
0#
00
0E
0P
#90000000
1#
b1000110100 %
10
1E
b1101 K
1P
b101 V
#90500000
0#
00
0E
0P
#91000000
1#
b1000110011 %
10
1E
b1110 K
1P
b110 V
#91500000
0#
00
0E
0P
#92000000
1#
b1000110010 %
10
1E
b1111 K
1P
b111 V
#92500000
0#
00
0E
0P
#93000000
1#
b1000110001 %
10
1E
b10000 K
1P
b1000 V
#93500000
0#
00
0E
0P
#94000000
1#
b1000110000 %
10
1E
b10001 K
1P
b1001 V
#94500000
0#
00
0E
0P
#95000000
1#
b1000101111 %
10
1E
b10010 K
1P
b1010 V
#95500000
0#
00
0E
0P
#96000000
1#
b1000101110 %
10
1E
b10011 K
1P
b1011 V
#96500000
0#
00
0E
0P
#97000000
1#
b1000101101 %
10
1E
b10100 K
1P
b1100 V
#97500000
0#
00
0E
0P
#98000000
1#
b1000101100 %
10
1E
b10101 K
1P
b1101 V
#98500000
0#
00
0E
0P
#99000000
1#
b1000101011 %
10
1E
b10110 K
1P
b1110 V
#99500000
0#
00
0E
0P
#100000000
1#
b1000101010 %
10
1E
b10111 K
1P
b1111 V
#100500000
0#
00
0E
0P
#101000000
1#
b1000101001 %
10
1E
b0 K
b11 L
1P
b10000 V
#101500000
0#
00
0E
0P
#102000000
1#
b1000101000 %
10
1E
b1 K
1P
b10001 V
#102500000
0#
00
0E
0P
#103000000
1#
b1000100111 %
10
1E
b10 K
1P
b10010 V
#103500000
0#
00
0E
0P
#104000000
1#
b1000100110 %
10
1E
b11 K
1P
b10011 V
#104500000
0#
00
0E
0P
#105000000
1#
b1000100101 %
10
1E
b100 K
1P
b10100 V
#105500000
0#
00
0E
0P
#106000000
1#
b1000100100 %
10
1E
b101 K
1P
b10101 V
#106500000
0#
00
0E
0P
#107000000
1#
b1000100011 %
10
1E
b110 K
1P
b10110 V
#107500000
0#
00
0E
0P
#108000000
1#
b1000100010 %
10
1E
b111 K
1P
b10111 V
#108500000
0#
00
0E
0P
#109000000
1#
b1000100001 %
10
b11000000 9
1E
b1000 K
1P
b11000000 S
b0 V
b100 W
b11000000 X
#109500000
0#
00
0E
0P
#110000000
1#
b1000100000 %
10
1E
b1001 K
1P
b1 V
#110500000
0#
00
0E
0P
#111000000
1#
b1000011111 %
10
1E
b1010 K
1P
b10 V
#111500000
0#
00
0E
0P
#112000000
1#
b1000011110 %
10
1E
b1011 K
1P
b11 V
#112500000
0#
00
0E
0P
#113000000
1#
b1000011101 %
10
1E
b1100 K
1P
b100 V
#113500000
0#
00
0E
0P
#114000000
1#
b1000011100 %
10
1E
b1101 K
1P
b101 V
#114500000
0#
00
0E
0P
#115000000
1#
b1000011011 %
10
1E
b1110 K
1P
b110 V
#115500000
0#
00
0E
0P
#116000000
1#
b1000011010 %
10
1E
b1111 K
1P
b111 V
#116500000
0#
00
0E
0P
#117000000
1#
b1000011001 %
10
1E
b10000 K
1P
b1000 V
#117500000
0#
00
0E
0P
#118000000
1#
b1000011000 %
10
1E
b10001 K
1P
b1001 V
#118500000
0#
00
0E
0P
#119000000
1#
b1000010111 %
10
1E
b10010 K
1P
b1010 V
#119500000
0#
00
0E
0P
#120000000
1#
b1000010110 %
10
1E
b10011 K
1P
b1011 V
#120500000
0#
00
0E
0P
#121000000
1#
b1000010101 %
10
1E
b10100 K
1P
b1100 V
#121500000
0#
00
0E
0P
#122000000
1#
b1000010100 %
10
1E
b10101 K
1P
b1101 V
#122500000
0#
00
0E
0P
#123000000
1#
b1000010011 %
10
1E
b10110 K
1P
b1110 V
#123500000
0#
00
0E
0P
#124000000
1#
b1000010010 %
10
1E
b10111 K
1P
b1111 V
#124500000
0#
00
0E
0P
#125000000
1#
b1000010001 %
10
1E
b0 K
b100 L
1P
b10000 V
#125500000
0#
00
0E
0P
#126000000
1#
b1000010000 %
0&
10
05
06
1E
0I
b1 K
1P
0Q
b10001 V
#126500000
0#
00
0E
0P
#127000000
1#
b1000001111 %
10
1E
b10 K
1P
0T
b10010 V
#127500000
0#
00
0E
0P
#128000000
1#
b1000001110 %
10
1E
b11 K
1P
0U
b10011 V
#128500000
0#
00
0E
0P
#129000000
1#
b1000001101 %
10
1E
b100 K
1P
b10100 V
#129500000
0#
00
0E
0P
#130000000
1#
b1000001100 %
10
1E
b101 K
1P
b10101 V
#130500000
0#
00
0E
0P
#131000000
1#
b1000001011 %
10
1E
b110 K
1P
b10110 V
#131500000
0#
00
0E
0P
#132000000
1#
b1000001010 %
10
1E
b111 K
1P
b10111 V
#132500000
0#
00
0E
0P
#133000000
1#
b1000001001 %
10
b01100000 9
1E
b1000 K
1P
b01100000 S
b0 V
b101 W
b01100000 X
#133500000
0#
00
0E
0P
#134000000
1#
b1000001000 %
10
1E
b1001 K
1P
b1 V
#134500000
0#
00
0E
0P
#135000000
1#
b1000000111 %
10
1E
b1010 K
1P
b10 V
#135500000
0#
00
0E
0P
#136000000
1#
b1000000110 %
10
1E
b1011 K
1P
b11 V
#136500000
0#
00
0E
0P
#137000000
1#
b1000000101 %
10
1E
b1100 K
1P
b100 V
#137500000
0#
00
0E
0P
#138000000
1#
b1000000100 %
10
1E
b1101 K
1P
b101 V
#138500000
0#
00
0E
0P
#139000000
1#
b1000000011 %
10
1E
b1110 K
1P
b110 V
#139500000
0#
00
0E
0P
#140000000
1#
b1000000010 %
10
1E
b1111 K
1P
b111 V
#140500000
0#
00
0E
0P
#141000000
1#
b1000000001 %
10
1E
b10000 K
1P
b1000 V
#141500000
0#
00
0E
0P
#142000000
1#
b1000000000 %
10
1E
b10001 K
1P
b1001 V
#142500000
0#
00
0E
0P
#143000000
1#
b111111111 %
10
1E
b10010 K
1P
b1010 V
#143500000
0#
00
0E
0P
#144000000
1#
b111111110 %
10
1E
b10011 K
1P
b1011 V
#144500000
0#
00
0E
0P
#145000000
1#
b111111101 %
10
1E
b10100 K
1P
b1100 V
#145500000
0#
00
0E
0P
#146000000
1#
b111111100 %
10
1E
b10101 K
1P
b1101 V
#146500000
0#
00
0E
0P
#147000000
1#
b111111011 %
10
1E
b10110 K
1P
b1110 V
#147500000
0#
00
0E
0P
#148000000
1#
b111111010 %
10
1E
b10111 K
1P
b1111 V
#148500000
0#
00
0E
0P
#149000000
1#
b111111001 %
10
1E
b0 K
b101 L
1P
b10000 V
#149500000
0#
00
0E
0P
#150000000
1#
b111111000 %
1&
10
15
16
1E
1I
b1 K
1P
1Q
b10001 V
#150500000
0#
00
0E
0P
#151000000
1#
b111110111 %
10
1E
b10 K
1P
1T
b10010 V
#151500000
0#
00
0E
0P
#152000000
1#
b111110110 %
10
1E
b11 K
1P
1U
b10011 V
#152500000
0#
00
0E
0P
#153000000
1#
b111110101 %
10
1E
b100 K
1P
b10100 V
#153500000
0#
00
0E
0P
#154000000
1#
b111110100 %
10
1E
b101 K
1P
b10101 V
#154500000
0#
00
0E
0P
#155000000
1#
b111110011 %
10
1E
b110 K
1P
b10110 V
#155500000
0#
00
0E
0P
#156000000
1#
b111110010 %
10
1E
b111 K
1P
b10111 V
#156500000
0#
00
0E
0P
#157000000
1#
b111110001 %
10
b10110000 9
1E
b1000 K
1P
b10110000 S
b0 V
b110 W
b10110000 X
#157500000
0#
00
0E
0P
#158000000
1#
b111110000 %
10
1E
b1001 K
1P
b1 V
#158500000
0#
00
0E
0P
#159000000
1#
b111101111 %
10
1E
b1010 K
1P
b10 V
#159500000
0#
00
0E
0P
#160000000
1#
b111101110 %
10
1E
b1011 K
1P
b11 V
#160500000
0#
00
0E
0P
#161000000
1#
b111101101 %
10
1E
b1100 K
1P
b100 V
#161500000
0#
00
0E
0P
#162000000
1#
b111101100 %
10
1E
b1101 K
1P
b101 V
#162500000
0#
00
0E
0P
#163000000
1#
b111101011 %
10
1E
b1110 K
1P
b110 V
#163500000
0#
00
0E
0P
#164000000
1#
b111101010 %
10
1E
b1111 K
1P
b111 V
#164500000
0#
00
0E
0P
#165000000
1#
b111101001 %
10
1E
b10000 K
1P
b1000 V
#165500000
0#
00
0E
0P
#166000000
1#
b111101000 %
10
1E
b10001 K
1P
b1001 V
#166500000
0#
00
0E
0P
#167000000
1#
b111100111 %
10
1E
b10010 K
1P
b1010 V
#167500000
0#
00
0E
0P
#168000000
1#
b111100110 %
10
1E
b10011 K
1P
b1011 V
#168500000
0#
00
0E
0P
#169000000
1#
b111100101 %
10
1E
b10100 K
1P
b1100 V
#169500000
0#
00
0E
0P
#170000000
1#
b111100100 %
10
1E
b10101 K
1P
b1101 V
#170500000
0#
00
0E
0P
#171000000
1#
b111100011 %
10
1E
b10110 K
1P
b1110 V
#171500000
0#
00
0E
0P
#172000000
1#
b111100010 %
10
1E
b10111 K
1P
b1111 V
#172500000
0#
00
0E
0P
#173000000
1#
b111100001 %
10
1E
b0 K
b110 L
1P
b10000 V
#173500000
0#
00
0E
0P
#174000000
1#
b111100000 %
0&
10
05
06
1E
0I
b1 K
1P
0Q
b10001 V
#174500000
0#
00
0E
0P
#175000000
1#
b111011111 %
10
1E
b10 K
1P
0T
b10010 V
#175500000
0#
00
0E
0P
#176000000
1#
b111011110 %
10
1E
b11 K
1P
0U
b10011 V
#176500000
0#
00
0E
0P
#177000000
1#
b111011101 %
10
1E
b100 K
1P
b10100 V
#177500000
0#
00
0E
0P
#178000000
1#
b111011100 %
10
1E
b101 K
1P
b10101 V
#178500000
0#
00
0E
0P
#179000000
1#
b111011011 %
10
1E
b110 K
1P
b10110 V
#179500000
0#
00
0E
0P
#180000000
1#
b111011010 %
10
1E
b111 K
1P
b10111 V
#180500000
0#
00
0E
0P
#181000000
1#
b111011001 %
10
b01011000 9
1E
b1000 K
1P
b01011000 S
b0 V
b111 W
b01011000 X
#181500000
0#
00
0E
0P
#182000000
1#
b111011000 %
10
1E
b1001 K
1P
b1 V
#182500000
0#
00
0E
0P
#183000000
1#
b111010111 %
10
1E
b1010 K
1P
b10 V
#183500000
0#
00
0E
0P
#184000000
1#
b111010110 %
10
1E
b1011 K
1P
b11 V
#184500000
0#
00
0E
0P
#185000000
1#
b111010101 %
10
1E
b1100 K
1P
b100 V
#185500000
0#
00
0E
0P
#186000000
1#
b111010100 %
10
1E
b1101 K
1P
b101 V
#186500000
0#
00
0E
0P
#187000000
1#
b111010011 %
10
1E
b1110 K
1P
b110 V
#187500000
0#
00
0E
0P
#188000000
1#
b111010010 %
10
1E
b1111 K
1P
b111 V
#188500000
0#
00
0E
0P
#189000000
1#
b111010001 %
10
1E
b10000 K
1P
b1000 V
#189500000
0#
00
0E
0P
#190000000
1#
b111010000 %
10
1E
b10001 K
1P
b1001 V
#190500000
0#
00
0E
0P
#191000000
1#
b111001111 %
10
1E
b10010 K
1P
b1010 V
#191500000
0#
00
0E
0P
#192000000
1#
b111001110 %
10
1E
b10011 K
1P
b1011 V
#192500000
0#
00
0E
0P
#193000000
1#
b111001101 %
10
1E
b10100 K
1P
b1100 V
#193500000
0#
00
0E
0P
#194000000
1#
b111001100 %
10
1E
b10101 K
1P
b1101 V
#194500000
0#
00
0E
0P
#195000000
1#
b111001011 %
10
1E
b10110 K
1P
b1110 V
#195500000
0#
00
0E
0P
#196000000
1#
b111001010 %
10
1E
b10111 K
1P
b1111 V
#196500000
0#
00
0E
0P
#197000000
1#
b111001001 %
10
1E
b0 K
b111 L
1P
b10000 V
#197500000
0#
00
0E
0P
#198000000
1#
b111001000 %
1&
10
15
16
1E
1I
b1 K
1P
1Q
b10001 V
#198500000
0#
00
0E
0P
#199000000
1#
b111000111 %
10
1E
b10 K
1P
1T
b10010 V
#199500000
0#
00
0E
0P
#200000000
1#
b111000110 %
10
1E
b11 K
1P
1U
b10011 V
#200500000
0#
00
0E
0P
#201000000
1#
b111000101 %
10
1E
b100 K
1P
b10100 V
#201500000
0#
00
0E
0P
#202000000
1#
b111000100 %
10
1E
b101 K
1P
b10101 V
#202500000
0#
00
0E
0P
#203000000
1#
b111000011 %
10
1E
b110 K
1P
b10110 V
#203500000
0#
00
0E
0P
#204000000
1#
b111000010 %
10
1E
b111 K
1P
b10111 V
#204500000
0#
00
0E
0P
#205000000
1#
b111000001 %
10
b10101100 9
1E
b1000 K
1P
b10101100 S
b0 V
b0 W
b10101100 X
#205500000
0#
00
0E
0P
#206000000
1#
b111000000 %
10
1E
b1001 K
1P
b1 V
#206500000
0#
00
0E
0P
#207000000
1#
b110111111 %
10
1E
b1010 K
1P
b10 V
#207500000
0#
00
0E
0P
#208000000
1#
b110111110 %
10
1E
b1011 K
1P
b11 V
#208500000
0#
00
0E
0P
#209000000
1#
b110111101 %
10
1E
b1100 K
1P
b100 V
#209500000
0#
00
0E
0P
#210000000
1#
b110111100 %
10
1E
b1101 K
1P
b101 V
#210500000
0#
00
0E
0P
#211000000
1#
b110111011 %
10
1E
b1110 K
1P
b110 V
#211500000
0#
00
0E
0P
#212000000
1#
b110111010 %
10
1E
b1111 K
1P
b111 V
#212500000
0#
00
0E
0P
#213000000
1#
b110111001 %
10
1E
b10000 K
1P
b1000 V
#213500000
0#
00
0E
0P
#214000000
1#
b110111000 %
10
1E
b10001 K
1P
b1001 V
#214500000
0#
00
0E
0P
#215000000
1#
b110110111 %
10
1E
b10010 K
1P
b1010 V
#215500000
0#
00
0E
0P
#216000000
1#
b110110110 %
10
1E
b10011 K
1P
b1011 V
#216500000
0#
00
0E
0P
#217000000
1#
b110110101 %
10
1E
b10100 K
1P
b1100 V
#217500000
0#
00
0E
0P
#218000000
1#
b110110100 %
10
1E
b10101 K
1P
b1101 V
#218500000
0#
00
0E
0P
#219000000
1#
b110110011 %
10
1E
b10110 K
1P
b1110 V
#219500000
0#
00
0E
0P
#220000000
1#
b110110010 %
10
1E
b10111 K
1P
b1111 V
#220500000
0#
00
0E
0P
#221000000
1#
b110110001 %
10
1E
b0 K
b0 L
1P
b10000 V
#221500000
0#
00
0E
0P
#222000000
1#
b110110000 %
10
1E
b1 K
1P
b10001 V
#222500000
0#
00
0E
0P
#223000000
1#
b110101111 %
10
1E
b10 K
1P
b10010 V
#223500000
0#
00
0E
0P
#224000000
1#
b110101110 %
10
1E
b11 K
1P
b10011 V
#224500000
0#
00
0E
0P
#225000000
1#
b110101101 %
10
1E
b100 K
1P
b10100 V
#225500000
0#
00
0E
0P
#226000000
1#
b110101100 %
10
1E
b101 K
1P
b10101 V
#226500000
0#
00
0E
0P
#227000000
1#
b110101011 %
10
1E
b110 K
1P
b10110 V
#227500000
0#
00
0E
0P
#228000000
1#
b110101010 %
10
1E
b111 K
1P
b10111 V
#228500000
0#
00
0E
0P
#229000000
1#
b110101001 %
10
1B
1E
b1000 K
1P
1R
b0 V
1Y
#229500000
0#
00
0E
0P
#230000000
1#
b110101000 %
10
1<
b1010110000000110 =
0B
1E
b1001 K
1P
0R
0Y
#230500000
0#
00
0E
0P
#231000000
1#
b110100111 %
10
1E
b1010 K
1P
#231500000
0#
00
0E
0P
#232000000
1#
b110100110 %
10
1E
b1011 K
1P
#232500000
0#
00
0E
0P
#233000000
1#
b110100101 %
10
1E
b1100 K
1P
#233500000
0#
00
0E
0P
#234000000
1#
b110100100 %
10
1E
b1101 K
1P
#234500000
0#
00
0E
0P
#235000000
1#
b110100011 %
10
1E
b1110 K
1P
#235500000
0#
00
0E
0P
#236000000
1#
b110100010 %
10
1E
b1111 K
1P
#236500000
0#
00
0E
0P
#237000000
1#
b110100001 %
10
1E
b10000 K
1P
#237500000
0#
00
0E
0P
#238000000
1#
b110100000 %
10
1E
b10001 K
1P
#238500000
0#
00
0E
0P
#239000000
1#
b110011111 %
10
1E
b10010 K
1P
#239500000
0#
00
0E
0P
#240000000
1#
b110011110 %
10
1E
b10011 K
1P
#240500000
0#
00
0E
0P
#241000000
1#
b110011101 %
10
1E
b10100 K
1P
#241500000
0#
00
0E
0P
#242000000
1#
b110011100 %
10
1E
b10101 K
1P
#242500000
0#
00
0E
0P
#243000000
1#
b110011011 %
10
1E
b10110 K
1P
#243500000
0#
00
0E
0P
#244000000
1#
b110011010 %
10
1E
b10111 K
1P
#244500000
0#
00
0E
0P
#245000000
1#
b110011001 %
10
1:
1E
1J
b0 K
1N
1P
#245500000
0#
00
0E
0P
#246000000
1#
b110011000 %
10
0?
0A
1E
0F
0H
0O
1P
#246500000
0#
00
0E
0P
