source/system_control/system_components/uart/simulation/tb_uart.vcd
$date
  Sun May 23 08:05:19 2021
$end
$version
  GHDL v0
$end
$timescale
  1 fs
$end
$scope module standard $end
$upscope $end
$scope module std_logic_1164 $end
$upscope $end
$scope module numeric_std $end
$upscope $end
$scope module textio $end
$upscope $end
$scope module std_logic_textio $end
$upscope $end
$scope module math_real $end
$upscope $end
$scope module uart_pkg $end
$upscope $end
$scope module std_logic_arith $end
$upscope $end
$scope module std_logic_unsigned $end
$upscope $end
$scope module tb_uart $end
$var reg 1 ! rstn $end
$var reg 1 " simulation_running $end
$var reg 1 # simulator_clock $end
$var reg 1 $ clocked_reset $end
$comment uart_clocks is not handled $end
$comment uart_fpga_in is not handled $end
$comment uart_fpga_out is not handled $end
$comment uart_data_in is not handled $end
$comment uart_data_out is not handled $end
$var integer 32 % simulation_counter $end
$var reg 1 & uart_tx $end
$var integer 32 ' data_from_uart $end
$scope module u_uart $end
$comment uart_clocks is not handled $end
$comment uart_fpga_in is not handled $end
$comment uart_fpga_out is not handled $end
$comment uart_data_in is not handled $end
$comment uart_data_out is not handled $end
$var reg 16 ( r_rx_data_out[15:0] $end
$var reg 16 ) r15_uart_data_in[15:0] $end
$var reg 16 * route_uart_tx_data[15:0] $end
$var reg 1 + r_uart_start_event $end
$var reg 1 , route_uart_tx_active $end
$var reg 1 - route_uart_tx_done $end
$var reg 1 . r_rx_ready_event $end
$var reg 1 / route_uart_tx_start $end
$comment r_pres_state is not handled $end
$comment r_next_state is not handled $end
$scope module uart1 $end
$var reg 1 0 uart_clk $end
$var reg 1 1 i_tx_start $end
$var reg 16 2 i_tx_data_in[15:0] $end
$var reg 1 3 so_uart_tx_active $end
$var reg 1 4 uart_tx_done $end
$var reg 1 5 uart_tx_serial $end
$var reg 1 6 uart_rx_serial $end
$var reg 1 7 rx_ready_event $end
$var reg 16 8 o_rx_data_out[15:0] $end
$var reg 8 9 route_uart_rx_data[7:0] $end
$var reg 1 : route_uart_tx_done $end
$var reg 1 ; i $end
$var reg 1 < j $end
$var reg 16 = testidata[15:0] $end
$var reg 8 > route_uart_tx_data[7:0] $end
$var reg 1 ? route_uart_tx_active $end
$var reg 1 @ route_tx_in_progress $end
$var reg 1 A tx_start $end
$var reg 1 B route_rx_ready_event $end
$var reg 1 C route_receive_ready_event $end
$var reg 16 D route_rx_data_out[15:0] $end
$comment present_state is not handled $end
$comment next_state is not handled $end
$comment rx_pres_state is not handled $end
$comment rx_next_state is not handled $end
$scope module uarttx $end
$var reg 1 E i_clk $end
$var reg 1 F i_tx_dv $end
$var reg 8 G i_tx_byte[7:0] $end
$var reg 1 H o_tx_active $end
$var reg 1 I o_tx_serial $end
$var reg 1 J o_tx_done $end
$comment r_sm_main is not handled $end
$var integer 32 K r_clk_count $end
$var integer 32 L r_bit_index $end
$var reg 8 M r_tx_data[7:0] $end
$var reg 1 N r_tx_done $end
$var reg 1 O route_tx_active $end
$var reg 1 P route_tx_serial $end
$upscope $end
$scope module uartrx $end
$var reg 1 Q i_clk $end
$var reg 1 R i_rx_serial $end
$var reg 1 S o_rx_ready_event $end
$var reg 8 T o_rx_byte[7:0] $end
$comment r_sm_main is not handled $end
$var reg 1 U r_rx_data_r $end
$var reg 1 V r_rx_data $end
$var integer 32 W r_clk_count $end
$var integer 32 X r_bit_index $end
$var reg 8 Y r_rx_byte[7:0] $end
$var reg 1 Z r_rx_busy $end
$upscope $end
$upscope $end
$upscope $end
$upscope $end
$enddefinitions $end
#0
0!
1"
0#
0$
b0 %
U&
b0 '
b0000011000000110 (
bUUUUUUUUUUUUUUUU )
bUUUUUUUUUUUUUUUU *
U+
U,
U-
U.
U/
00
U1
bUUUUUUUUUUUUUUUU 2
U3
U4
U5
U6
U7
b0000011000000110 8
b00000000 9
0:
0;
0<
b0000011000000110 =
bUUUUUUUU >
U?
U@
UA
0B
UC
b0000011000000110 D
0E
UF
bUUUUUUUU G
UH
UI
0J
b0 K
b0 L
b00000000 M
0N
UO
UP
0Q
UR
0S
b00000000 T
0U
0V
b0 W
b0 X
b00000000 Y
0Z
#500000
#1000000
1!
1#
1$
b1 %
1&
0,
0.
0/
10
01
03
15
16
07
0?
0@
0A
0C
1E
0F
0H
1I
0O
1P
1Q
1R
UU
#1500000
0#
00
0E
0Q
#2000000
1#
b10 %
10
1E
1Q
1U
UV
b1 W
#2500000
0#
00
0E
0Q
#3000000
1#
b11 %
10
1E
1Q
1V
b10 W
#3500000
0#
00
0E
0Q
#4000000
1#
b100 %
b1010110011011100 )
b1010110011011100 *
10
b1010110011011100 2
1E
1Q
b11 W
#4500000
0#
00
0E
0Q
#5000000
1#
b101 %
1/
10
11
1E
1Q
b100 W
#5500000
0#
00
0E
0Q
#6000000
1#
b110 %
1,
10
13
1@
1E
1Q
b101 W
#6500000
0#
00
0E
0Q
#7000000
1#
b111 %
0/
10
01
1;
b10101100 >
1A
1E
1F
b10101100 G
1Q
b110 W
#7500000
0#
00
0E
0Q
#8000000
1#
b1000 %
10
1E
b10101100 M
1Q
b111 W
#8500000
0#
00
0E
0Q
#9000000
1#
b1001 %
0&
10
05
06
1?
1E
1H
0I
b1 K
1O
0P
1Q
0R
b1000 W
#9500000
0#
00
0E
0Q
#10000000
1#
b1010 %
10
1E
b10 K
1Q
0U
b1001 W
#10500000
0#
00
0E
0Q
#11000000
1#
b1011 %
10
1E
b11 K
1Q
0V
b1010 W
#11500000
0#
00
0E
0Q
#12000000
1#
b1100 %
10
1E
b100 K
1Q
b1011 W
#12500000
0#
00
0E
0Q
#13000000
1#
b1101 %
10
1E
b101 K
1Q
b0 W
#13500000
0#
00
0E
0Q
#14000000
1#
b1110 %
10
1E
b110 K
1Q
b1 W
#14500000
0#
00
0E
0Q
#15000000
1#
b1111 %
10
1E
b111 K
1Q
b10 W
#15500000
0#
00
0E
0Q
#16000000
1#
b10000 %
10
1E
b1000 K
1Q
b11 W
#16500000
0#
00
0E
0Q
#17000000
1#
b10001 %
10
1E
b1001 K
1Q
b100 W
#17500000
0#
00
0E
0Q
#18000000
1#
b10010 %
10
1E
b1010 K
1Q
b101 W
#18500000
0#
00
0E
0Q
#19000000
1#
b10011 %
10
1E
b1011 K
1Q
b110 W
#19500000
0#
00
0E
0Q
#20000000
1#
b10100 %
10
1E
b1100 K
1Q
b111 W
#20500000
0#
00
0E
0Q
#21000000
1#
b10101 %
10
1E
b1101 K
1Q
b1000 W
#21500000
0#
00
0E
0Q
#22000000
1#
b10110 %
10
1E
b1110 K
1Q
b1001 W
#22500000
0#
00
0E
0Q
#23000000
1#
b10111 %
10
1E
b1111 K
1Q
b1010 W
#23500000
0#
00
0E
0Q
#24000000
1#
b11000 %
10
1E
b10000 K
1Q
b1011 W
#24500000
0#
00
0E
0Q
#25000000
1#
b11001 %
10
1E
b10001 K
1Q
b1100 W
#25500000
0#
00
0E
0Q
#26000000
1#
b11010 %
10
1E
b10010 K
1Q
b1101 W
#26500000
0#
00
0E
0Q
#27000000
1#
b11011 %
10
1E
b10011 K
1Q
b1110 W
#27500000
0#
00
0E
0Q
#28000000
1#
b11100 %
10
1E
b10100 K
1Q
b1111 W
#28500000
0#
00
0E
0Q
#29000000
1#
b11101 %
10
1E
b10101 K
1Q
b10000 W
#29500000
0#
00
0E
0Q
#30000000
1#
b11110 %
10
1E
b10110 K
1Q
b10001 W
#30500000
0#
00
0E
0Q
#31000000
1#
b11111 %
10
1E
b10111 K
1Q
b10010 W
#31500000
0#
00
0E
0Q
#32000000
1#
b100000 %
10
1E
b0 K
1Q
b10011 W
#32500000
0#
00
0E
0Q
#33000000
1#
b100001 %
10
1E
b1 K
1Q
b10100 W
#33500000
0#
00
0E
0Q
#34000000
1#
b100010 %
10
1E
b10 K
1Q
b10101 W
#34500000
0#
00
0E
0Q
#35000000
1#
b100011 %
10
1E
b11 K
1Q
b10110 W
#35500000
0#
00
0E
0Q
#36000000
1#
b100100 %
10
1E
b100 K
1Q
b10111 W
#36500000
0#
00
0E
0Q
#37000000
1#
b100101 %
10
1E
b101 K
1Q
b0 W
b1 X
#37500000
0#
00
0E
0Q
#38000000
1#
b100110 %
10
1E
b110 K
1Q
b1 W
#38500000
0#
00
0E
0Q
#39000000
1#
b100111 %
10
1E
b111 K
1Q
b10 W
#39500000
0#
00
0E
0Q
#40000000
1#
b101000 %
10
1E
b1000 K
1Q
b11 W
#40500000
0#
00
0E
0Q
#41000000
1#
b101001 %
10
1E
b1001 K
1Q
b100 W
#41500000
0#
00
0E
0Q
#42000000
1#
b101010 %
10
1E
b1010 K
1Q
b101 W
#42500000
0#
00
0E
0Q
#43000000
1#
b101011 %
10
1E
b1011 K
1Q
b110 W
#43500000
0#
00
0E
0Q
#44000000
1#
b101100 %
10
1E
b1100 K
1Q
b111 W
#44500000
0#
00
0E
0Q
#45000000
1#
b101101 %
10
1E
b1101 K
1Q
b1000 W
#45500000
0#
00
0E
0Q
#46000000
1#
b101110 %
10
1E
b1110 K
1Q
b1001 W
#46500000
0#
00
0E
0Q
#47000000
1#
b101111 %
10
1E
b1111 K
1Q
b1010 W
#47500000
0#
00
0E
0Q
#48000000
1#
b110000 %
10
1E
b10000 K
1Q
b1011 W
#48500000
0#
00
0E
0Q
#49000000
1#
b110001 %
10
1E
b10001 K
1Q
b1100 W
#49500000
0#
00
0E
0Q
#50000000
1#
b110010 %
10
1E
b10010 K
1Q
b1101 W
#50500000
0#
00
0E
0Q
#51000000
1#
b110011 %
10
1E
b10011 K
1Q
b1110 W
#51500000
0#
00
0E
0Q
#52000000
1#
b110100 %
10
1E
b10100 K
1Q
b1111 W
#52500000
0#
00
0E
0Q
#53000000
1#
b110101 %
10
1E
b10101 K
1Q
b10000 W
#53500000
0#
00
0E
0Q
#54000000
1#
b110110 %
10
1E
b10110 K
1Q
b10001 W
#54500000
0#
00
0E
0Q
#55000000
1#
b110111 %
10
1E
b10111 K
1Q
b10010 W
#55500000
0#
00
0E
0Q
#56000000
1#
b111000 %
10
1E
b0 K
b1 L
1Q
b10011 W
#56500000
0#
00
0E
0Q
#57000000
1#
b111001 %
10
1E
b1 K
1Q
b10100 W
#57500000
0#
00
0E
0Q
#58000000
1#
b111010 %
10
1E
b10 K
1Q
b10101 W
#58500000
0#
00
0E
0Q
#59000000
1#
b111011 %
10
1E
b11 K
1Q
b10110 W
#59500000
0#
00
0E
0Q
#60000000
1#
b111100 %
10
1E
b100 K
1Q
b10111 W
#60500000
0#
00
0E
0Q
#61000000
1#
b111101 %
10
1E
b101 K
1Q
b0 W
b10 X
#61500000
0#
00
0E
0Q
#62000000
1#
b111110 %
10
1E
b110 K
1Q
b1 W
#62500000
0#
00
0E
0Q
#63000000
1#
b111111 %
10
1E
b111 K
1Q
b10 W
#63500000
0#
00
0E
0Q
#64000000
1#
b1000000 %
10
1E
b1000 K
1Q
b11 W
#64500000
0#
00
0E
0Q
#65000000
1#
b1000001 %
10
1E
b1001 K
1Q
b100 W
#65500000
0#
00
0E
0Q
#66000000
1#
b1000010 %
10
1E
b1010 K
1Q
b101 W
#66500000
0#
00
0E
0Q
#67000000
1#
b1000011 %
10
1E
b1011 K
1Q
b110 W
#67500000
0#
00
0E
0Q
#68000000
1#
b1000100 %
10
1E
b1100 K
1Q
b111 W
#68500000
0#
00
0E
0Q
#69000000
1#
b1000101 %
10
1E
b1101 K
1Q
b1000 W
#69500000
0#
00
0E
0Q
#70000000
1#
b1000110 %
10
1E
b1110 K
1Q
b1001 W
#70500000
0#
00
0E
0Q
#71000000
1#
b1000111 %
10
1E
b1111 K
1Q
b1010 W
#71500000
0#
00
0E
0Q
#72000000
1#
b1001000 %
10
1E
b10000 K
1Q
b1011 W
#72500000
0#
00
0E
0Q
#73000000
1#
b1001001 %
10
1E
b10001 K
1Q
b1100 W
#73500000
0#
00
0E
0Q
#74000000
1#
b1001010 %
10
1E
b10010 K
1Q
b1101 W
#74500000
0#
00
0E
0Q
#75000000
1#
b1001011 %
10
1E
b10011 K
1Q
b1110 W
#75500000
0#
00
0E
0Q
#76000000
1#
b1001100 %
10
1E
b10100 K
1Q
b1111 W
#76500000
0#
00
0E
0Q
#77000000
1#
b1001101 %
10
1E
b10101 K
1Q
b10000 W
#77500000
0#
00
0E
0Q
#78000000
1#
b1001110 %
10
1E
b10110 K
1Q
b10001 W
#78500000
0#
00
0E
0Q
#79000000
1#
b1001111 %
10
1E
b10111 K
1Q
b10010 W
#79500000
0#
00
0E
0Q
#80000000
1#
b1010000 %
10
1E
b0 K
b10 L
1Q
b10011 W
#80500000
0#
00
0E
0Q
#81000000
1#
b1010001 %
1&
10
15
16
1E
1I
b1 K
1P
1Q
1R
b10100 W
#81500000
0#
00
0E
0Q
#82000000
1#
b1010010 %
10
1E
b10 K
1Q
1U
b10101 W
#82500000
0#
00
0E
0Q
#83000000
1#
b1010011 %
10
1E
b11 K
1Q
1V
b10110 W
#83500000
0#
00
0E
0Q
#84000000
1#
b1010100 %
10
1E
b100 K
1Q
b10111 W
#84500000
0#
00
0E
0Q
#85000000
1#
b1010101 %
10
b10000000 9
1E
b101 K
1Q
b10000000 T
b0 W
b11 X
b10000000 Y
#85500000
0#
00
0E
0Q
#86000000
1#
b1010110 %
10
1E
b110 K
1Q
b1 W
#86500000
0#
00
0E
0Q
#87000000
1#
b1010111 %
10
1E
b111 K
1Q
b10 W
#87500000
0#
00
0E
0Q
#88000000
1#
b1011000 %
10
1E
b1000 K
1Q
b11 W
#88500000
0#
00
0E
0Q
#89000000
1#
b1011001 %
10
1E
b1001 K
1Q
b100 W
#89500000
0#
00
0E
0Q
#90000000
1#
b1011010 %
10
1E
b1010 K
1Q
b101 W
#90500000
0#
00
0E
0Q
#91000000
1#
b1011011 %
10
1E
b1011 K
1Q
b110 W
#91500000
0#
00
0E
0Q
#92000000
1#
b1011100 %
10
1E
b1100 K
1Q
b111 W
#92500000
0#
00
0E
0Q
#93000000
1#
b1011101 %
10
1E
b1101 K
1Q
b1000 W
#93500000
0#
00
0E
0Q
#94000000
1#
b1011110 %
10
1E
b1110 K
1Q
b1001 W
#94500000
0#
00
0E
0Q
#95000000
1#
b1011111 %
10
1E
b1111 K
1Q
b1010 W
#95500000
0#
00
0E
0Q
#96000000
1#
b1100000 %
10
1E
b10000 K
1Q
b1011 W
#96500000
0#
00
0E
0Q
#97000000
1#
b1100001 %
10
1E
b10001 K
1Q
b1100 W
#97500000
0#
00
0E
0Q
#98000000
1#
b1100010 %
10
1E
b10010 K
1Q
b1101 W
#98500000
0#
00
0E
0Q
#99000000
1#
b1100011 %
10
1E
b10011 K
1Q
b1110 W
#99500000
0#
00
0E
0Q
#100000000
1#
b1100100 %
10
1E
b10100 K
1Q
b1111 W
#100500000
0#
00
0E
0Q
#101000000
1#
b1100101 %
10
1E
b10101 K
1Q
b10000 W
#101500000
0#
00
0E
0Q
#102000000
1#
b1100110 %
10
1E
b10110 K
1Q
b10001 W
#102500000
0#
00
0E
0Q
#103000000
1#
b1100111 %
10
1E
b10111 K
1Q
b10010 W
#103500000
0#
00
0E
0Q
#104000000
1#
b1101000 %
10
1E
b0 K
b11 L
1Q
b10011 W
#104500000
0#
00
0E
0Q
#105000000
1#
b1101001 %
10
1E
b1 K
1Q
b10100 W
#105500000
0#
00
0E
0Q
#106000000
1#
b1101010 %
10
1E
b10 K
1Q
b10101 W
#106500000
0#
00
0E
0Q
#107000000
1#
b1101011 %
10
1E
b11 K
1Q
b10110 W
#107500000
0#
00
0E
0Q
#108000000
1#
b1101100 %
10
1E
b100 K
1Q
b10111 W
#108500000
0#
00
0E
0Q
#109000000
1#
b1101101 %
10
b11000000 9
1E
b101 K
1Q
b11000000 T
b0 W
b100 X
b11000000 Y
#109500000
0#
00
0E
0Q
#110000000
1#
b1101110 %
10
1E
b110 K
1Q
b1 W
#110500000
0#
00
0E
0Q
#111000000
1#
b1101111 %
10
1E
b111 K
1Q
b10 W
#111500000
0#
00
0E
0Q
#112000000
1#
b1110000 %
10
1E
b1000 K
1Q
b11 W
#112500000
0#
00
0E
0Q
#113000000
1#
b1110001 %
10
1E
b1001 K
1Q
b100 W
#113500000
0#
00
0E
0Q
#114000000
1#
b1110010 %
10
1E
b1010 K
1Q
b101 W
#114500000
0#
00
0E
0Q
#115000000
1#
b1110011 %
10
1E
b1011 K
1Q
b110 W
#115500000
0#
00
0E
0Q
#116000000
1#
b1110100 %
10
1E
b1100 K
1Q
b111 W
#116500000
0#
00
0E
0Q
#117000000
1#
b1110101 %
10
1E
b1101 K
1Q
b1000 W
#117500000
0#
00
0E
0Q
#118000000
1#
b1110110 %
10
1E
b1110 K
1Q
b1001 W
#118500000
0#
00
0E
0Q
#119000000
1#
b1110111 %
10
1E
b1111 K
1Q
b1010 W
#119500000
0#
00
0E
0Q
#120000000
1#
b1111000 %
10
1E
b10000 K
1Q
b1011 W
#120500000
0#
00
0E
0Q
#121000000
1#
b1111001 %
10
1E
b10001 K
1Q
b1100 W
#121500000
0#
00
0E
0Q
#122000000
1#
b1111010 %
10
1E
b10010 K
1Q
b1101 W
#122500000
0#
00
0E
0Q
#123000000
1#
b1111011 %
10
1E
b10011 K
1Q
b1110 W
#123500000
0#
00
0E
0Q
#124000000
1#
b1111100 %
10
1E
b10100 K
1Q
b1111 W
#124500000
0#
00
0E
0Q
#125000000
1#
b1111101 %
10
1E
b10101 K
1Q
b10000 W
#125500000
0#
00
0E
0Q
#126000000
1#
b1111110 %
10
1E
b10110 K
1Q
b10001 W
#126500000
0#
00
0E
0Q
#127000000
1#
b1111111 %
10
1E
b10111 K
1Q
b10010 W
#127500000
0#
00
0E
0Q
#128000000
1#
b10000000 %
10
1E
b0 K
b100 L
1Q
b10011 W
#128500000
0#
00
0E
0Q
#129000000
1#
b10000001 %
0&
10
05
06
1E
0I
b1 K
0P
1Q
0R
b10100 W
#129500000
0#
00
0E
0Q
#130000000
1#
b10000010 %
10
1E
b10 K
1Q
0U
b10101 W
#130500000
0#
00
0E
0Q
#131000000
1#
b10000011 %
10
1E
b11 K
1Q
0V
b10110 W
#131500000
0#
00
0E
0Q
#132000000
1#
b10000100 %
10
1E
b100 K
1Q
b10111 W
#132500000
0#
00
0E
0Q
#133000000
1#
b10000101 %
10
b01100000 9
1E
b101 K
1Q
b01100000 T
b0 W
b101 X
b01100000 Y
#133500000
0#
00
0E
0Q
#134000000
1#
b10000110 %
10
1E
b110 K
1Q
b1 W
#134500000
0#
00
0E
0Q
#135000000
1#
b10000111 %
10
1E
b111 K
1Q
b10 W
#135500000
0#
00
0E
0Q
#136000000
1#
b10001000 %
10
1E
b1000 K
1Q
b11 W
#136500000
0#
00
0E
0Q
#137000000
1#
b10001001 %
10
1E
b1001 K
1Q
b100 W
#137500000
0#
00
0E
0Q
#138000000
1#
b10001010 %
10
1E
b1010 K
1Q
b101 W
#138500000
0#
00
0E
0Q
#139000000
1#
b10001011 %
10
1E
b1011 K
1Q
b110 W
#139500000
0#
00
0E
0Q
#140000000
1#
b10001100 %
10
1E
b1100 K
1Q
b111 W
#140500000
0#
00
0E
0Q
#141000000
1#
b10001101 %
10
1E
b1101 K
1Q
b1000 W
#141500000
0#
00
0E
0Q
#142000000
1#
b10001110 %
10
1E
b1110 K
1Q
b1001 W
#142500000
0#
00
0E
0Q
#143000000
1#
b10001111 %
10
1E
b1111 K
1Q
b1010 W
#143500000
0#
00
0E
0Q
#144000000
1#
b10010000 %
10
1E
b10000 K
1Q
b1011 W
#144500000
0#
00
0E
0Q
#145000000
1#
b10010001 %
10
1E
b10001 K
1Q
b1100 W
#145500000
0#
00
0E
0Q
#146000000
1#
b10010010 %
10
1E
b10010 K
1Q
b1101 W
#146500000
0#
00
0E
0Q
#147000000
1#
b10010011 %
10
1E
b10011 K
1Q
b1110 W
#147500000
0#
00
0E
0Q
#148000000
1#
b10010100 %
10
1E
b10100 K
1Q
b1111 W
#148500000
0#
00
0E
0Q
#149000000
1#
b10010101 %
10
1E
b10101 K
1Q
b10000 W
#149500000
0#
00
0E
0Q
#150000000
1#
b10010110 %
10
1E
b10110 K
1Q
b10001 W
#150500000
0#
00
0E
0Q
#151000000
1#
b10010111 %
10
1E
b10111 K
1Q
b10010 W
#151500000
0#
00
0E
0Q
#152000000
1#
b10011000 %
10
1E
b0 K
b101 L
1Q
b10011 W
#152500000
0#
00
0E
0Q
#153000000
1#
b10011001 %
1&
10
15
16
1E
1I
b1 K
1P
1Q
1R
b10100 W
#153500000
0#
00
0E
0Q
#154000000
1#
b10011010 %
10
1E
b10 K
1Q
1U
b10101 W
#154500000
0#
00
0E
0Q
#155000000
1#
b10011011 %
10
1E
b11 K
1Q
1V
b10110 W
#155500000
0#
00
0E
0Q
#156000000
1#
b10011100 %
10
1E
b100 K
1Q
b10111 W
#156500000
0#
00
0E
0Q
#157000000
1#
b10011101 %
10
b10110000 9
1E
b101 K
1Q
b10110000 T
b0 W
b110 X
b10110000 Y
#157500000
0#
00
0E
0Q
#158000000
1#
b10011110 %
10
1E
b110 K
1Q
b1 W
#158500000
0#
00
0E
0Q
#159000000
1#
b10011111 %
10
1E
b111 K
1Q
b10 W
#159500000
0#
00
0E
0Q
#160000000
1#
b10100000 %
10
1E
b1000 K
1Q
b11 W
#160500000
0#
00
0E
0Q
#161000000
1#
b10100001 %
10
1E
b1001 K
1Q
b100 W
#161500000
0#
00
0E
0Q
#162000000
1#
b10100010 %
10
1E
b1010 K
1Q
b101 W
#162500000
0#
00
0E
0Q
#163000000
1#
b10100011 %
10
1E
b1011 K
1Q
b110 W
#163500000
0#
00
0E
0Q
#164000000
1#
b10100100 %
10
1E
b1100 K
1Q
b111 W
#164500000
0#
00
0E
0Q
#165000000
1#
b10100101 %
10
1E
b1101 K
1Q
b1000 W
#165500000
0#
00
0E
0Q
#166000000
1#
b10100110 %
10
1E
b1110 K
1Q
b1001 W
#166500000
0#
00
0E
0Q
#167000000
1#
b10100111 %
10
1E
b1111 K
1Q
b1010 W
#167500000
0#
00
0E
0Q
#168000000
1#
b10101000 %
10
1E
b10000 K
1Q
b1011 W
#168500000
0#
00
0E
0Q
#169000000
1#
b10101001 %
10
1E
b10001 K
1Q
b1100 W
#169500000
0#
00
0E
0Q
#170000000
1#
b10101010 %
10
1E
b10010 K
1Q
b1101 W
#170500000
0#
00
0E
0Q
#171000000
1#
b10101011 %
10
1E
b10011 K
1Q
b1110 W
#171500000
0#
00
0E
0Q
#172000000
1#
b10101100 %
10
1E
b10100 K
1Q
b1111 W
#172500000
0#
00
0E
0Q
#173000000
1#
b10101101 %
10
1E
b10101 K
1Q
b10000 W
#173500000
0#
00
0E
0Q
#174000000
1#
b10101110 %
10
1E
b10110 K
1Q
b10001 W
#174500000
0#
00
0E
0Q
#175000000
1#
b10101111 %
10
1E
b10111 K
1Q
b10010 W
#175500000
0#
00
0E
0Q
#176000000
1#
b10110000 %
10
1E
b0 K
b110 L
1Q
b10011 W
#176500000
0#
00
0E
0Q
#177000000
1#
b10110001 %
0&
10
05
06
1E
0I
b1 K
0P
1Q
0R
b10100 W
#177500000
0#
00
0E
0Q
#178000000
1#
b10110010 %
10
1E
b10 K
1Q
0U
b10101 W
#178500000
0#
00
0E
0Q
#179000000
1#
b10110011 %
10
1E
b11 K
1Q
0V
b10110 W
#179500000
0#
00
0E
0Q
#180000000
1#
b10110100 %
10
1E
b100 K
1Q
b10111 W
#180500000
0#
00
0E
0Q
#181000000
1#
b10110101 %
10
b01011000 9
1E
b101 K
1Q
b01011000 T
b0 W
b111 X
b01011000 Y
#181500000
0#
00
0E
0Q
#182000000
1#
b10110110 %
10
1E
b110 K
1Q
b1 W
#182500000
0#
00
0E
0Q
#183000000
1#
b10110111 %
10
1E
b111 K
1Q
b10 W
#183500000
0#
00
0E
0Q
#184000000
1#
b10111000 %
10
1E
b1000 K
1Q
b11 W
#184500000
0#
00
0E
0Q
#185000000
1#
b10111001 %
10
1E
b1001 K
1Q
b100 W
#185500000
0#
00
0E
0Q
#186000000
1#
b10111010 %
10
1E
b1010 K
1Q
b101 W
#186500000
0#
00
0E
0Q
#187000000
1#
b10111011 %
10
1E
b1011 K
1Q
b110 W
#187500000
0#
00
0E
0Q
#188000000
1#
b10111100 %
10
1E
b1100 K
1Q
b111 W
#188500000
0#
00
0E
0Q
#189000000
1#
b10111101 %
10
1E
b1101 K
1Q
b1000 W
#189500000
0#
00
0E
0Q
#190000000
1#
b10111110 %
10
1E
b1110 K
1Q
b1001 W
#190500000
0#
00
0E
0Q
#191000000
1#
b10111111 %
10
1E
b1111 K
1Q
b1010 W
#191500000
0#
00
0E
0Q
#192000000
1#
b11000000 %
10
1E
b10000 K
1Q
b1011 W
#192500000
0#
00
0E
0Q
#193000000
1#
b11000001 %
10
1E
b10001 K
1Q
b1100 W
#193500000
0#
00
0E
0Q
#194000000
1#
b11000010 %
10
1E
b10010 K
1Q
b1101 W
#194500000
0#
00
0E
0Q
#195000000
1#
b11000011 %
10
1E
b10011 K
1Q
b1110 W
#195500000
0#
00
0E
0Q
#196000000
1#
b11000100 %
10
1E
b10100 K
1Q
b1111 W
#196500000
0#
00
0E
0Q
#197000000
1#
b11000101 %
10
1E
b10101 K
1Q
b10000 W
#197500000
0#
00
0E
0Q
#198000000
1#
b11000110 %
10
1E
b10110 K
1Q
b10001 W
#198500000
0#
00
0E
0Q
#199000000
1#
b11000111 %
10
1E
b10111 K
1Q
b10010 W
#199500000
0#
00
0E
0Q
#200000000
1#
b11001000 %
10
1E
b0 K
b111 L
1Q
b10011 W
#200500000
0#
00
0E
0Q
#201000000
1#
b11001001 %
1&
10
15
16
1E
1I
b1 K
1P
1Q
1R
b10100 W
#201500000
0#
00
0E
0Q
#202000000
1#
b11001010 %
10
1E
b10 K
1Q
1U
b10101 W
#202500000
0#
00
0E
0Q
#203000000
1#
b11001011 %
10
1E
b11 K
1Q
1V
b10110 W
#203500000
0#
00
0E
0Q
#204000000
1#
b11001100 %
10
1E
b100 K
1Q
b10111 W
#204500000
0#
00
0E
0Q
#205000000
1#
b11001101 %
10
b10101100 9
1E
b101 K
1Q
b10101100 T
b0 W
b0 X
b10101100 Y
#205500000
0#
00
0E
0Q
#206000000
1#
b11001110 %
10
1E
b110 K
1Q
b1 W
#206500000
0#
00
0E
0Q
#207000000
1#
b11001111 %
10
1E
b111 K
1Q
b10 W
#207500000
0#
00
0E
0Q
#208000000
1#
b11010000 %
10
1E
b1000 K
1Q
b11 W
#208500000
0#
00
0E
0Q
#209000000
1#
b11010001 %
10
1E
b1001 K
1Q
b100 W
#209500000
0#
00
0E
0Q
#210000000
1#
b11010010 %
10
1E
b1010 K
1Q
b101 W
#210500000
0#
00
0E
0Q
#211000000
1#
b11010011 %
10
1E
b1011 K
1Q
b110 W
#211500000
0#
00
0E
0Q
#212000000
1#
b11010100 %
10
1E
b1100 K
1Q
b111 W
#212500000
0#
00
0E
0Q
#213000000
1#
b11010101 %
10
1E
b1101 K
1Q
b1000 W
#213500000
0#
00
0E
0Q
#214000000
1#
b11010110 %
10
1E
b1110 K
1Q
b1001 W
#214500000
0#
00
0E
0Q
#215000000
1#
b11010111 %
10
1E
b1111 K
1Q
b1010 W
#215500000
0#
00
0E
0Q
#216000000
1#
b11011000 %
10
1E
b10000 K
1Q
b1011 W
#216500000
0#
00
0E
0Q
#217000000
1#
b11011001 %
10
1E
b10001 K
1Q
b1100 W
#217500000
0#
00
0E
0Q
#218000000
1#
b11011010 %
10
1E
b10010 K
1Q
b1101 W
#218500000
0#
00
0E
0Q
#219000000
1#
b11011011 %
10
1E
b10011 K
1Q
b1110 W
#219500000
0#
00
0E
0Q
#220000000
1#
b11011100 %
10
1E
b10100 K
1Q
b1111 W
#220500000
0#
00
0E
0Q
#221000000
1#
b11011101 %
10
1E
b10101 K
1Q
b10000 W
#221500000
0#
00
0E
0Q
#222000000
1#
b11011110 %
10
1E
b10110 K
1Q
b10001 W
#222500000
0#
00
0E
0Q
#223000000
1#
b11011111 %
10
1E
b10111 K
1Q
b10010 W
#223500000
0#
00
0E
0Q
#224000000
1#
b11100000 %
10
1E
b0 K
b0 L
1Q
b10011 W
#224500000
0#
00
0E
0Q
#225000000
1#
b11100001 %
10
1E
b1 K
1Q
b10100 W
#225500000
0#
00
0E
0Q
#226000000
1#
b11100010 %
10
1E
b10 K
1Q
b10101 W
#226500000
0#
00
0E
0Q
#227000000
1#
b11100011 %
10
1E
b11 K
1Q
b10110 W
#227500000
0#
00
0E
0Q
#228000000
1#
b11100100 %
10
1E
b100 K
1Q
b10111 W
#228500000
0#
00
0E
0Q
#229000000
1#
b11100101 %
10
1B
1E
b101 K
1Q
1S
b0 W
1Z
#229500000
0#
00
0E
0Q
#230000000
1#
b11100110 %
10
1<
b1010110000000110 =
0B
1E
b110 K
1Q
0S
0Z
#230500000
0#
00
0E
0Q
#231000000
1#
b11100111 %
10
1E
b111 K
1Q
#231500000
0#
00
0E
0Q
#232000000
1#
b11101000 %
10
1E
b1000 K
1Q
#232500000
0#
00
0E
0Q
#233000000
1#
b11101001 %
10
1E
b1001 K
1Q
#233500000
0#
00
0E
0Q
#234000000
1#
b11101010 %
10
1E
b1010 K
1Q
#234500000
0#
00
0E
0Q
#235000000
1#
b11101011 %
10
1E
b1011 K
1Q
#235500000
0#
00
0E
0Q
#236000000
1#
b11101100 %
10
1E
b1100 K
1Q
#236500000
0#
00
0E
0Q
#237000000
1#
b11101101 %
10
1E
b1101 K
1Q
#237500000
0#
00
0E
0Q
#238000000
1#
b11101110 %
10
1E
b1110 K
1Q
#238500000
0#
00
0E
0Q
#239000000
1#
b11101111 %
10
1E
b1111 K
1Q
#239500000
0#
00
0E
0Q
#240000000
1#
b11110000 %
10
1E
b10000 K
1Q
#240500000
0#
00
0E
0Q
